…
cdi
```

    ## # A tibble: 440 × 17
    ##    CRM_1000 cty      state    pop pop18 pop65 crimes hsgrad bagrad poverty unemp
    ##       <dbl> <fct>    <fct>  <dbl> <dbl> <dbl>  <dbl>  <dbl>  <dbl>   <dbl> <dbl>
    ##  1     77.7 Los_Ange CA    8.86e6  32.1   9.7 688936   70     22.3    11.6   8  
    ##  2     85.6 Cook     IL    5.11e6  29.2  12.4 436936   73.4   22.8    11.1   7.2
    ##  3     90.0 Harris   TX    2.82e6  31.3   7.1 253526   74.9   25.4    12.5   5.7
    ##  4     69.6 San_Dieg CA    2.50e6  33.5  10.9 173821   81.9   25.3     8.1   6.1
    ##  5     60.0 Orange   CA    2.41e6  32.6   9.2 144524   81.2   27.8     5.2   4.8
    ##  6    296.  Kings    NY    2.30e6  28.3  12.4 680966   63.7   16.6    19.5   9.5
    ##  7     83.7 Maricopa AZ    2.12e6  29.2  12.5 177593   81.5   22.1     8.8   4.9
    ##  8     91.9 Wayne    MI    2.11e6  27.4  12.5 193978   70     13.7    16.9  10  
    ##  9    126.  Dade     FL    1.94e6  27.1  13.9 244725   65     18.8    14.2   8.7
    ## 10    116.  Dallas   TX    1.85e6  32.6   8.2 214258   77.1   26.3    10.4   6.1
    ## # … with 430 more rows, and 6 more variables: pcincome <dbl>, totalinc <dbl>,
    ## #   region <fct>, pop_den <dbl>, pdocs <dbl>, pbeds <dbl>
…
## Group by states and check for outliers again.

``` r
cdi_state = 
  cdi %>% 
  group_by(state) %>% 
  summarise(state_pop = sum(pop),
            state_crimes = sum(crimes)) %>% 
  mutate(state_CRM_1000 = 1000*state_crimes/state_pop) %>% 
  relocate(state_CRM_1000)

cdi_state
```

    ## # A tibble: 48 × 4
    ##    state_CRM_1000 state state_pop state_crimes
    ##             <dbl> <fct>     <dbl>        <dbl>
    ##  1           71.6 AL      1844764       132007
    ##  2          105.  AR       463069        48526
    ##  3           80.2 AZ      3119969       250285
    ##  4           69.3 CA     28917875      2002790
    ##  5           65.8 CO      2625950       172695
    ##  6           50.9 CT      3287116       167208
    ##  7          106.  DC       606900        64393
    ##  8           60.7 DE       552939        33563
    ##  9           86.2 FL     11744171      1011989
    ## 10           93.0 GA      2913394       270900
    ## # … with 38 more rows
…
## a is close to 1/2. Perform sqrt transformation.

``` r
cdi_sqrt = 
  cdiout %>% 
  mutate(sqrt_CRM_1000 = sqrt(CRM_1000)) %>% 
  dplyr::select(-CRM_1000) %>% 
  relocate(sqrt_CRM_1000)

cdi_sqrt
```

    ## # A tibble: 439 × 14
    ##    sqrt_CRM_1000 state pop18 pop65 hsgrad bagrad poverty unemp pcincome totalinc
    ##            <dbl> <fct> <dbl> <dbl>  <dbl>  <dbl>   <dbl> <dbl>    <dbl>    <dbl>
    ##  1          8.82 CA     32.1   9.7   70     22.3    11.6   8      20786   184230
    ##  2          9.25 IL     29.2  12.4   73.4   22.8    11.1   7.2    21729   110928
    ##  3          9.48 TX     31.3   7.1   74.9   25.4    12.5   5.7    19517    55003
    ##  4          8.34 CA     33.5  10.9   81.9   25.3     8.1   6.1    19588    48931
    ##  5          7.74 CA     32.6   9.2   81.2   27.8     5.2   4.8    24400    58818
    ##  6          9.15 AZ     29.2  12.5   81.5   22.1     8.8   4.9    18042    38287
    ##  7          9.58 MI     27.4  12.5   70     13.7    16.9  10      17461    36872
    ##  8         11.2  FL     27.1  13.9   65     18.8    14.2   8.7    17823    34525
    ##  9         10.8  TX     32.6   8.2   77.1   26.3    10.4   6.1    21001    38911
    ## 10          8.30 PA     29.1  15.2   64.3   15.2    16.1   8      16721    26512
    ## # … with 429 more rows, and 4 more variables: region <fct>, pop_den <dbl>,
    ## #   pdocs <dbl>, pbeds <dbl>
…
